Wrangling categorical variables in R
…
```r
# usethis::use_course("http://bit.ly/ecodata-factors-ex")
pokemon <- read_csv("data/pokemon.csv")
```

---

```r
# usethis::use_course("http://bit.ly/ecodata-factors-ex")
pokemon
```

```
## # A tibble: 721 x 23
##    number name  type_1 type_2 total    hp attack defense sp_atk sp_def
##     <dbl> <chr> <chr>  <chr>  <dbl> <dbl>  <dbl>   <dbl>  <dbl>  <dbl>
##  1      1 Bulb… Grass  Poison   318    45     49      49     65     65
##  2      2 Ivys… Grass  Poison   405    60     62      63     80     80
##  3      3 Venu… Grass  Poison   525    80     82      83    100    100
##  4      4 Char… Fire   <NA>     309    39     52      43     60     50
##  5      5 Char… Fire   <NA>     405    58     64      58     80     65
##  6      6 Char… Fire   Flying   534    78     84      78    109     85
##  7      7 Squi… Water  <NA>     314    44     48      65     50     64
##  8      8 Wart… Water  <NA>     405    59     63      80     65     80
##  9      9 Blas… Water  <NA>     530    79     83     100     85    105
## 10     10 Cate… Bug    <NA>     195    45     30      35     20     20
## # ... with 711 more rows, and 13 more variables: speed <dbl>,
## #   generation <dbl>, is_legendary <lgl>, color <chr>,
## #   has_gender <lgl>, pr_male <dbl>, egg_group_1 <chr>,
## #   egg_group_2 <chr>, has_mega_evolution <lgl>, height_m <dbl>,
## #   weight_kg <dbl>, catch_rate <dbl>, body_style <chr>
```
…
---

```r
pokemon %>%
  count(generation, body_style)
```

```
## # A tibble: 80 x 3
##    generation body_style           n
##         <dbl> <chr>            <int>
##  1          1 bipedal_tailed      34
##  2          1 bipedal_tailless    21
##  3          1 four_wings           4
##  4          1 head_arms            5
##  5          1 head_base            7
##  6          1 head_legs            7
##  7          1 head_only            7
##  8          1 insectoid            6
##  9          1 multiple_bodies      4
## 10          1 quadruped           25
## # ... with 70 more rows
```
…
